                            name commit lines diff_commiters log_line extension
1 arch/alpha/boot/bootloader.lds      1    24              1 3.178054       lds
2        arch/alpha/boot/bootp.c      4   215              4 5.370638         c
3       arch/alpha/boot/bootpz.c      5   476              5 6.165418         c
4         arch/alpha/boot/head.S      1   123              1 4.812184         S
5         arch/alpha/boot/main.c      5   192              5 5.257495         c
6       arch/alpha/boot/Makefile      2   116              2 4.753590          
