Standard deviations:
[1] 334.734636  19.153779   2.982312

Rotation:
                       PC1         PC2           PC3
commit         0.022503588  0.97004138 -0.2418952298
lines          0.999729438 -0.02325897 -0.0002673078
diff_commiters 0.005885533  0.24182377  0.9703023376
