\relax 
\catcode`:\active
\catcode`;\active
\catcode`!\active
\catcode`?\active
\ifx\hyper@anchor\@undefined
\global \let \oldcontentsline\contentsline
\gdef \contentsline#1#2#3#4{\oldcontentsline{#1}{#2}{#3}}
\global \let \oldnewlabel\newlabel
\gdef \newlabel#1#2{\newlabelxx{#1}#2}
\gdef \newlabelxx#1#2#3#4#5#6{\oldnewlabel{#1}{{#2}{#3}}}
\AtEndDocument{\let \contentsline\oldcontentsline
\let \newlabel\oldnewlabel}
\else
\global \let \hyper@last\relax 
\fi

\select@language{french}
\@writefile{toc}{\select@language{french}}
\@writefile{lof}{\select@language{french}}
\@writefile{lot}{\select@language{french}}
\@writefile{toc}{\contentsline {section}{\numberline {1}Introduction}{2}{section.1}}
\@writefile{toc}{\contentsline {subsection}{\numberline {1.1}Objectifs}{2}{subsection.1.1}}
\@writefile{toc}{\contentsline {section}{\numberline {2}Planning}{2}{section.2}}
\@writefile{toc}{\contentsline {subsection}{\numberline {2.1}Phase 1 : rendu le 5 mars 2010}{2}{subsection.2.1}}
\@writefile{toc}{\contentsline {subsection}{\numberline {2.2}Phase 2 : rendu le 19 mars 2010}{2}{subsection.2.2}}
\@writefile{toc}{\contentsline {subsection}{\numberline {2.3}Phase 3 : rendu le 2 avril 2010}{3}{subsection.2.3}}
\@writefile{toc}{\contentsline {subsection}{\numberline {2.4}Phase 4 : rendu le 2 juin 2010}{3}{subsection.2.4}}
\@writefile{toc}{\contentsline {section}{\numberline {3}Outils}{3}{section.3}}
\@writefile{toc}{\contentsline {subsection}{\numberline {3.1}Google Groupe}{3}{subsection.3.1}}
\@writefile{toc}{\contentsline {subsection}{\numberline {3.2}Environnement de d\IeC {\'e}veloppement}{4}{subsection.3.2}}
\@writefile{toc}{\contentsline {subsection}{\numberline {3.3}Subversion}{4}{subsection.3.3}}
\@writefile{toc}{\contentsline {subsection}{\numberline {3.4}Makefile}{5}{subsection.3.4}}
\@writefile{toc}{\contentsline {section}{\numberline {4}Repartition des taches}{5}{section.4}}
\@writefile{toc}{\contentsline {section}{\numberline {5}R\IeC {\'e}solution des probl\IeC {\`e}mes rencontr\IeC {\'e}s}{5}{section.5}}
\@writefile{toc}{\contentsline {subsection}{\numberline {5.1}Richesses des objets rencontr\IeC {\'e}s}{5}{subsection.5.1}}
\@writefile{toc}{\contentsline {subsection}{\numberline {5.2}R\IeC {\'e}utilisation d'un code source disponible}{5}{subsection.5.2}}
\@writefile{toc}{\contentsline {subsection}{\numberline {5.3}Adaptation du logiciel smooth}{6}{subsection.5.3}}
