\select@language {french}
\contentsline {section}{\numberline {1}Structure de donn\IeC {\'e}es}{2}{section.1}
\contentsline {section}{\numberline {2}Liste des modules}{2}{section.2}
\contentsline {section}{\numberline {3}Test d'int\IeC {\'e}gration entre les diff\IeC {\'e}rents modules}{3}{section.3}
\contentsline {subsection}{\numberline {3.1}Correction}{3}{subsection.3.1}
\contentsline {subsection}{\numberline {3.2}Gestion des fichiers \textit {obj}}{3}{subsection.3.2}
