\relax 
\catcode`:\active
\catcode`;\active
\catcode`!\active
\catcode`?\active
\ifx\hyper@anchor\@undefined
\global \let \oldcontentsline\contentsline
\gdef \contentsline#1#2#3#4{\oldcontentsline{#1}{#2}{#3}}
\global \let \oldnewlabel\newlabel
\gdef \newlabel#1#2{\newlabelxx{#1}#2}
\gdef \newlabelxx#1#2#3#4#5#6{\oldnewlabel{#1}{{#2}{#3}}}
\AtEndDocument{\let \contentsline\oldcontentsline
\let \newlabel\oldnewlabel}
\else
\global \let \hyper@last\relax 
\fi

\select@language{french}
\@writefile{toc}{\select@language{french}}
\@writefile{lof}{\select@language{french}}
\@writefile{lot}{\select@language{french}}
\@writefile{toc}{\contentsline {section}{\numberline {1}Structure de donn\IeC {\'e}es}{1}{section.1}}
\@writefile{toc}{\contentsline {section}{\numberline {2}Liste des modules}{1}{section.2}}
\@writefile{toc}{\contentsline {section}{\numberline {3}Test d'int\IeC {\'e}gration entre les diff\IeC {\'e}rents modules}{2}{section.3}}
\@writefile{toc}{\contentsline {subsection}{\numberline {3.1}Correction}{2}{subsection.3.1}}
\@writefile{toc}{\contentsline {subsection}{\numberline {3.2}Gestion des fichiers \textit  {obj}}{2}{subsection.3.2}}
\@writefile{toc}{\contentsline {subsection}{\numberline {3.3}Maillage}{2}{subsection.3.3}}
\@writefile{toc}{\contentsline {subsection}{\numberline {3.4}Controle de la qualit\IeC {\'e}}{2}{subsection.3.4}}
