\relax 
\catcode`:\active
\catcode`;\active
\catcode`!\active
\catcode`?\active
\ifx\hyper@anchor\@undefined
\global \let \oldcontentsline\contentsline
\gdef \contentsline#1#2#3#4{\oldcontentsline{#1}{#2}{#3}}
\global \let \oldnewlabel\newlabel
\gdef \newlabel#1#2{\newlabelxx{#1}#2}
\gdef \newlabelxx#1#2#3#4#5#6{\oldnewlabel{#1}{{#2}{#3}}}
\AtEndDocument{\let \contentsline\oldcontentsline
\let \newlabel\oldnewlabel}
\else
\global \let \hyper@last\relax 
\fi

\select@language{french}
\@writefile{toc}{\select@language{french}}
\@writefile{lof}{\select@language{french}}
\@writefile{lot}{\select@language{french}}
\@writefile{toc}{\contentsline {section}{\numberline {1}Introduction}{2}{section.1}}
\@writefile{toc}{\contentsline {subsection}{\numberline {1.1}La qualit\IeC {\'e} de service (QoS)}{2}{subsection.1.1}}
\@writefile{toc}{\contentsline {section}{\numberline {2}Mise en place de la qualit\IeC {\'e} de service sur des r\IeC {\'e}seaux Wi-fi}{2}{section.2}}
\@writefile{toc}{\contentsline {subsection}{\numberline {2.1}Pr\IeC {\'e}sentation du Wifi}{2}{subsection.2.1}}
\@writefile{toc}{\contentsline {subsection}{\numberline {2.2}La norme 802.11}{3}{subsection.2.2}}
\@writefile{toc}{\contentsline {subsubsection}{\numberline {2.2.1}DCF - \textit  {Distributed coordination function}}{3}{subsubsection.2.2.1}}
\@writefile{toc}{\contentsline {subsubsection}{\numberline {2.2.2}PCF - \textit  {Point coordination function}}{4}{subsubsection.2.2.2}}
\@writefile{toc}{\contentsline {subsection}{\numberline {2.3}La norme 802.11e}{4}{subsection.2.3}}
\@writefile{toc}{\contentsline {subsubsection}{\numberline {2.3.1}HCF - \textit  {Hybrid coordination function}}{4}{subsubsection.2.3.1}}
\@writefile{toc}{\contentsline {subsubsection}{\numberline {2.3.2}EDCA - \textit  {Enhanced distributed coordinated Access}}{4}{subsubsection.2.3.2}}
\@writefile{toc}{\contentsline {subsubsection}{\numberline {2.3.3}HCCA - \textit  {HCF controlled channel access}}{5}{subsubsection.2.3.3}}
\@writefile{toc}{\contentsline {section}{\numberline {3}VoIP}{5}{section.3}}
\@writefile{toc}{\contentsline {subsection}{\numberline {3.1}Architecture de la VoIP}{5}{subsection.3.1}}
\@writefile{toc}{\contentsline {subsection}{\numberline {3.2}Les codecs audios utilis\IeC {\'e}s}{5}{subsection.3.2}}
\@writefile{toc}{\contentsline {subsubsection}{\numberline {3.2.1}G711}{5}{subsubsection.3.2.1}}
\@writefile{toc}{\contentsline {subsubsection}{\numberline {3.2.2}G723}{5}{subsubsection.3.2.2}}
\@writefile{toc}{\contentsline {subsubsection}{\numberline {3.2.3}G729}{5}{subsubsection.3.2.3}}
\@writefile{toc}{\contentsline {subsection}{\numberline {3.3}Securit\IeC {\'e} \& VoIP}{5}{subsection.3.3}}
\bibcite{WIFI}{1}
\bibcite{Supporting VoIP Services}{2}
\bibcite{Protection and Guarantee}{3}
\bibcite{VoIP Capacity Evaluation}{4}
\bibcite{Dual queue}{5}
\bibcite{Analysis}{6}
\bibcite{Improving}{7}
\bibcite{Analysis}{8}
\bibcite{Delay sensitive}{9}
