<?xml version="1.0" encoding="UTF-8" standalone="no"?>
<!-- Created with Inkscape (http://www.inkscape.org/) -->

<svg
   xmlns:dc="http://purl.org/dc/elements/1.1/"
   xmlns:cc="http://creativecommons.org/ns#"
   xmlns:rdf="http://www.w3.org/1999/02/22-rdf-syntax-ns#"
   xmlns:svg="http://www.w3.org/2000/svg"
   xmlns="http://www.w3.org/2000/svg"
   xmlns:xlink="http://www.w3.org/1999/xlink"
   xmlns:sodipodi="http://sodipodi.sourceforge.net/DTD/sodipodi-0.dtd"
   xmlns:inkscape="http://www.inkscape.org/namespaces/inkscape"
   width="210mm"
   height="297mm"
   id="svg2"
   version="1.1"
   inkscape:version="0.47 r22583"
   sodipodi:docname="Dessin 3.png">
  <defs
     id="defs4">
    <linearGradient
       id="linearGradient5304">
      <stop
         style="stop-color:#00ff00;stop-opacity:0.3137255;"
         offset="0"
         id="stop5306" />
      <stop
         style="stop-color:#00ff00;stop-opacity:0.86274511;"
         offset="1"
         id="stop5308" />
    </linearGradient>
    <linearGradient
       id="linearGradient5296">
      <stop
         style="stop-color:#0000ff;stop-opacity:0.86274511;"
         offset="0"
         id="stop5298" />
      <stop
         style="stop-color:#0000ff;stop-opacity:0.3137255;"
         offset="1"
         id="stop5300" />
    </linearGradient>
    <linearGradient
       id="linearGradient5114">
      <stop
         style="stop-color:#0000ff;stop-opacity:0.86274511;"
         offset="0"
         id="stop5116" />
      <stop
         style="stop-color:#0000ff;stop-opacity:0.3137255;"
         offset="1"
         id="stop5118" />
    </linearGradient>
    <linearGradient
       id="linearGradient5090">
      <stop
         style="stop-color:#00ff00;stop-opacity:0.3137255;"
         offset="0"
         id="stop5092" />
      <stop
         style="stop-color:#00ff00;stop-opacity:0.86274511;"
         offset="1"
         id="stop5094" />
    </linearGradient>
    <linearGradient
       inkscape:collect="always"
       xlink:href="#linearGradient5090"
       id="linearGradient5100"
       x1="96.64286"
       y1="229.50504"
       x2="254.07143"
       y2="229.50504"
       gradientUnits="userSpaceOnUse" />
    <linearGradient
       inkscape:collect="always"
       xlink:href="#linearGradient5114"
       id="linearGradient5120"
       x1="173.07143"
       y1="205.93361"
       x2="296.21429"
       y2="205.93361"
       gradientUnits="userSpaceOnUse" />
    <linearGradient
       inkscape:collect="always"
       xlink:href="#linearGradient5296"
       id="linearGradient5302"
       x1="394.5"
       y1="182.36218"
       x2="475.5"
       y2="182.36218"
       gradientUnits="userSpaceOnUse" />
    <linearGradient
       inkscape:collect="always"
       xlink:href="#linearGradient5304"
       id="linearGradient5310"
       x1="314.5"
       y1="222.36218"
       x2="415.5"
       y2="222.36218"
       gradientUnits="userSpaceOnUse" />
  </defs>
  <sodipodi:namedview
     id="base"
     pagecolor="#ffffff"
     bordercolor="#666666"
     borderopacity="1.0"
     inkscape:pageopacity="0.0"
     inkscape:pageshadow="2"
     inkscape:zoom="1.9799"
     inkscape:cx="320.451"
     inkscape:cy="869.901"
     inkscape:document-units="px"
     inkscape:current-layer="layer1"
     showgrid="true"
     showguides="true"
     inkscape:guide-bbox="true"
     inkscape:object-paths="false"
     inkscape:snap-intersection-paths="false"
     inkscape:window-width="1440"
     inkscape:window-height="838"
     inkscape:window-x="-8"
     inkscape:window-y="-8"
     inkscape:window-maximized="1"
     inkscape:snap-grids="false"
     inkscape:snap-to-guides="false">
    <inkscape:grid
       type="xygrid"
       id="grid5234" />
  </sodipodi:namedview>
  <metadata
     id="metadata7">
    <rdf:RDF>
      <cc:Work
         rdf:about="">
        <dc:format>image/svg+xml</dc:format>
        <dc:type
           rdf:resource="http://purl.org/dc/dcmitype/StillImage" />
        <dc:title></dc:title>
      </cc:Work>
    </rdf:RDF>
  </metadata>
  <g
     inkscape:label="Calque 1"
     inkscape:groupmode="layer"
     id="layer1">
    <path
       style="fill:url(#linearGradient5100);stroke:#000000;stroke-width:1px;stroke-linecap:butt;stroke-linejoin:miter;stroke-opacity:1;fill-opacity:1;fill-rule:nonzero"
       d="m 125,157.36218 55,130 70,-90 -125,-40 z"
       id="path3598"
       sodipodi:nodetypes="cccc" />
    <path
       style="fill:url(#linearGradient5120);stroke:#000000;stroke-width:1px;stroke-linecap:butt;stroke-linejoin:miter;stroke-opacity:1;fill-opacity:1;fill-rule:nonzero"
       d="m 180,212.36218 80,-100 25,140 -105,-40 z"
       id="path3600"
       sodipodi:nodetypes="cccc" />
    <path
       style="fill:none;stroke:#000000;stroke-width:1;stroke-linecap:butt;stroke-linejoin:miter;stroke-opacity:1;stroke-miterlimit:4;stroke-dasharray:2,2;stroke-dashoffset:0"
       d="M 203.82166,182.58511 225,229.50504"
       id="path3602"
       sodipodi:nodetypes="cc" />
    <path
       style="fill:url(#linearGradient5302);stroke:#000000;stroke-width:1px;stroke-linecap:butt;stroke-linejoin:miter;stroke-opacity:1;fill-opacity:1"
       d="m 450,112.36218 -55,70 20,45 60,25 -25,-140 z"
       id="path5292" />
    <path
       style="fill:url(#linearGradient5310);stroke:#000000;stroke-width:1px;stroke-linecap:butt;stroke-linejoin:miter;stroke-opacity:1;fill-opacity:1"
       d="m 315,157.36218 55,130 45,-60 -20,-45 -80,-25 z"
       id="path5294" />
    <text
       xml:space="preserve"
       style="font-size:12px;font-style:normal;font-weight:normal;fill:#000000;fill-opacity:1;stroke:none;font-family:Bitstream Vera Sans"
       x="119.94924"
       y="154.83681"
       id="text5316"><tspan
         sodipodi:role="line"
         id="tspan5318"
         x="119.94924"
         y="154.83681">A</tspan></text>
    <text
       xml:space="preserve"
       style="font-size:12px;font-style:normal;font-weight:normal;fill:#000000;fill-opacity:1;stroke:none;font-family:Bitstream Vera Sans"
       x="174.94923"
       y="297.96878"
       id="text5320"><tspan
         sodipodi:role="line"
         id="tspan5322"
         x="174.94923"
         y="297.96878">B</tspan></text>
    <text
       xml:space="preserve"
       style="font-size:40px;font-style:normal;font-weight:normal;fill:#000000;fill-opacity:1;stroke:none;font-family:Bitstream Vera Sans"
       x="250"
       y="197.36218"
       id="text5324"><tspan
         sodipodi:role="line"
         id="tspan5326"
         x="250"
         y="197.36218"
         style="font-size:12px">C</tspan></text>
    <text
       xml:space="preserve"
       style="font-size:12px;font-style:normal;font-weight:normal;fill:#000000;fill-opacity:1;stroke:none;font-family:Bitstream Vera Sans"
       x="256.47678"
       y="109.44259"
       id="text5328"><tspan
         sodipodi:role="line"
         id="tspan5330"
         x="256.47678"
         y="109.44259">D</tspan></text>
    <text
       xml:space="preserve"
       style="font-size:40px;font-style:normal;font-weight:normal;fill:#000000;fill-opacity:1;stroke:none;font-family:Bitstream Vera Sans"
       x="170.40355"
       y="216.4028"
       id="text5332"><tspan
         sodipodi:role="line"
         id="tspan5334"
         x="170.40355"
         y="216.4028"
         style="font-size:12px">E</tspan></text>
    <text
       xml:space="preserve"
       style="font-size:12px;font-style:normal;font-weight:normal;fill:#000000;fill-opacity:1;stroke:none;font-family:Bitstream Vera Sans"
       x="285"
       y="262.96878"
       id="text5336"><tspan
         sodipodi:role="line"
         id="tspan5338"
         x="285"
         y="262.96878">F</tspan></text>
    <text
       xml:space="preserve"
       style="font-size:12px;font-style:normal;font-weight:normal;fill:#000000;fill-opacity:1;stroke:none;font-family:Bitstream Vera Sans"
       x="311.16565"
       y="154.0858"
       id="text5316-8"><tspan
         sodipodi:role="line"
         id="tspan5318-6"
         x="311.16565"
         y="154.0858">A</tspan></text>
    <text
       xml:space="preserve"
       style="font-size:12px;font-style:normal;font-weight:normal;fill:#000000;fill-opacity:1;stroke:none;font-family:Bitstream Vera Sans"
       x="446.05148"
       y="110.14417"
       id="text5328-9"><tspan
         sodipodi:role="line"
         id="tspan5330-8"
         x="446.05148"
         y="110.14417">D</tspan></text>
    <text
       xml:space="preserve"
       style="font-size:12px;font-style:normal;font-weight:normal;fill:#000000;fill-opacity:1;stroke:none;font-family:Bitstream Vera Sans"
       x="475.43555"
       y="262.17212"
       id="text5336-6"><tspan
         sodipodi:role="line"
         id="tspan5338-6"
         x="475.43555"
         y="262.17212">F</tspan></text>
    <text
       xml:space="preserve"
       style="font-size:12px;font-style:normal;font-weight:normal;fill:#000000;fill-opacity:1;stroke:none;font-family:Bitstream Vera Sans"
       x="365.59375"
       y="298.5376"
       id="text5320-2"><tspan
         sodipodi:role="line"
         id="tspan5322-3"
         x="365.59375"
         y="298.5376">B</tspan></text>
    <text
       xml:space="preserve"
       style="font-size:40px;font-style:normal;font-weight:normal;fill:#000000;fill-opacity:1;stroke:none;font-family:Bitstream Vera Sans"
       x="388.40366"
       y="177.57008"
       id="text5440"><tspan
         sodipodi:role="line"
         id="tspan5442"
         x="388.40366"
         y="177.57008"
         style="font-size:12px">G</tspan></text>
    <text
       xml:space="preserve"
       style="font-size:12px;font-style:normal;font-weight:normal;fill:#000000;fill-opacity:1;stroke:none;font-family:Bitstream Vera Sans"
       x="412.64731"
       y="239.69446"
       id="text5444"><tspan
         sodipodi:role="line"
         id="tspan5446"
         x="412.64731"
         y="239.69446">H</tspan></text>
  </g>
</svg>
