\relax 
\catcode`:\active
\catcode`;\active
\catcode`!\active
\catcode`?\active
\ifx\hyper@anchor\@undefined
\global \let \oldcontentsline\contentsline
\gdef \contentsline#1#2#3#4{\oldcontentsline{#1}{#2}{#3}}
\global \let \oldnewlabel\newlabel
\gdef \newlabel#1#2{\newlabelxx{#1}#2}
\gdef \newlabelxx#1#2#3#4#5#6{\oldnewlabel{#1}{{#2}{#3}}}
\AtEndDocument{\let \contentsline\oldcontentsline
\let \newlabel\oldnewlabel}
\else
\global \let \hyper@last\relax 
\fi

\select@language{french}
\@writefile{toc}{\select@language{french}}
\@writefile{lof}{\select@language{french}}
\@writefile{lot}{\select@language{french}}
\@writefile{toc}{\contentsline {section}{\numberline {1}But du projet}{2}{section.1}}
\@writefile{toc}{\contentsline {section}{\numberline {2}D\IeC {\'e}clencheurs du projet}{2}{section.2}}
\@writefile{toc}{\contentsline {section}{\numberline {3}\IeC {\'E}tudes ou r\IeC {\'e}alisations pr\IeC {\'e}alables}{2}{section.3}}
\@writefile{toc}{\contentsline {section}{\numberline {4}Liste des livrables attendus}{2}{section.4}}
\@writefile{toc}{\contentsline {section}{\numberline {5}Planning du projet}{2}{section.5}}
\@writefile{toc}{\contentsline {section}{\numberline {6}Budget}{2}{section.6}}
\@writefile{toc}{\contentsline {section}{\numberline {7}Destinataire de la note de charge}{2}{section.7}}
