\relax 
\ifx\hyper@anchor\@undefined
\global \let \oldcontentsline\contentsline
\gdef \contentsline#1#2#3#4{\oldcontentsline{#1}{#2}{#3}}
\global \let \oldnewlabel\newlabel
\gdef \newlabel#1#2{\newlabelxx{#1}#2}
\gdef \newlabelxx#1#2#3#4#5#6{\oldnewlabel{#1}{{#2}{#3}}}
\AtEndDocument{\let \contentsline\oldcontentsline
\let \newlabel\oldnewlabel}
\else
\global \let \hyper@last\relax 
\fi

\catcode`:\active
\catcode`;\active
\catcode`!\active
\catcode`?\active
\@writefile{toc}{\beamer@endinputifotherversion {3.07pt}}
\@writefile{nav}{\beamer@endinputifotherversion {3.07pt}}
\select@language{french}
\@writefile{toc}{\select@language{french}}
\@writefile{lof}{\select@language{french}}
\@writefile{lot}{\select@language{french}}
\@writefile{nav}{\headcommand {\slideentry {0}{0}{1}{1/1}{}{0}}}
\@writefile{nav}{\headcommand {\beamer@framepages {1}{1}}}
\@writefile{nav}{\headcommand {\partentry {Les pages}{1}}}
\@writefile{nav}{\headcommand {\beamer@partpages {1}{1}}}
\@writefile{nav}{\headcommand {\beamer@sectionpages {1}{1}}}
\@writefile{nav}{\headcommand {\beamer@subsectionpages {1}{1}}}
\@writefile{nav}{\headcommand {\slideentry {0}{0}{2}{2/2}{}{1}}}
\@writefile{nav}{\headcommand {\beamer@framepages {2}{2}}}
\@writefile{toc}{\beamer@sectionintoc {1}{Interfaces graphiques}{3}{1}{1}}
\@writefile{nav}{\headcommand {\sectionentry {1}{Interfaces graphiques}{3}{Interfaces graphiques}{1}}}
\@writefile{nav}{\headcommand {\beamer@sectionpages {2}{2}}}
\@writefile{nav}{\headcommand {\beamer@subsectionpages {2}{2}}}
\@writefile{nav}{\headcommand {\slideentry {1}{0}{3}{3/3}{}{1}}}
\@writefile{nav}{\headcommand {\beamer@framepages {3}{3}}}
\@writefile{toc}{\beamer@subsectionintoc {1}{1}{Interface en Ncurses}{4}{1}{1}}
\@writefile{nav}{\headcommand {\beamer@subsectionentry {1}{1}{1}{4}{Interface en Ncurses}}\headcommand {\beamer@subsectionpages {3}{3}}}
\@writefile{toc}{\beamer@subsectionintoc {1}{2}{Interface type smooth}{4}{1}{1}}
\@writefile{nav}{\headcommand {\beamer@subsectionentry {1}{1}{2}{4}{Interface type smooth}}\headcommand {\beamer@subsectionpages {4}{3}}}
\@writefile{toc}{\beamer@sectionintoc {2}{Subdivisions}{4}{1}{2}}
\@writefile{nav}{\headcommand {\sectionentry {2}{Subdivisions}{4}{Subdivisions}{1}}}
\@writefile{nav}{\headcommand {\beamer@sectionpages {3}{3}}}
\@writefile{nav}{\headcommand {\beamer@subsectionpages {4}{3}}}
\@writefile{nav}{\headcommand {\slideentry {2}{0}{1}{4/4}{}{1}}}
\@writefile{nav}{\headcommand {\beamer@framepages {4}{4}}}
\@writefile{toc}{\beamer@subsectionintoc {2}{1}{Subdivision plane}{5}{1}{2}}
\@writefile{nav}{\headcommand {\beamer@subsectionentry {1}{2}{1}{5}{Subdivision plane}}\headcommand {\beamer@subsectionpages {4}{4}}}
\@writefile{toc}{\beamer@subsectionintoc {2}{2}{Subdivision normale}{5}{1}{2}}
\@writefile{nav}{\headcommand {\beamer@subsectionentry {1}{2}{2}{5}{Subdivision normale}}\headcommand {\beamer@subsectionpages {5}{4}}}
\@writefile{toc}{\beamer@sectionintoc {3}{Qualit\IeC {\'e}}{5}{1}{3}}
\@writefile{nav}{\headcommand {\sectionentry {3}{Qualit\IeC {\'e}}{5}{Qualit\IeC {\'e}}{1}}}
\@writefile{nav}{\headcommand {\beamer@sectionpages {4}{4}}}
\@writefile{nav}{\headcommand {\beamer@subsectionpages {5}{4}}}
\@writefile{nav}{\headcommand {\slideentry {3}{0}{1}{5/5}{}{1}}}
\@writefile{nav}{\headcommand {\beamer@framepages {5}{5}}}
\@writefile{toc}{\beamer@sectionintoc {4}{Filtrage}{6}{1}{4}}
\@writefile{nav}{\headcommand {\sectionentry {4}{Filtrage}{6}{Filtrage}{1}}}
\@writefile{nav}{\headcommand {\beamer@sectionpages {5}{5}}}
\@writefile{nav}{\headcommand {\beamer@subsectionpages {5}{5}}}
\@writefile{nav}{\headcommand {\slideentry {4}{0}{2}{6/6}{}{1}}}
\@writefile{nav}{\headcommand {\beamer@framepages {6}{6}}}
\@writefile{toc}{\beamer@subsectionintoc {4}{1}{Filtrage uniforme}{7}{1}{4}}
\@writefile{nav}{\headcommand {\beamer@subsectionentry {1}{4}{1}{7}{Filtrage uniforme}}\headcommand {\beamer@subsectionpages {6}{6}}}
\@writefile{toc}{\beamer@subsectionintoc {4}{2}{Filtrage normal}{7}{1}{4}}
\@writefile{nav}{\headcommand {\beamer@subsectionentry {1}{4}{2}{7}{Filtrage normal}}\headcommand {\beamer@subsectionpages {7}{6}}}
\@writefile{toc}{\beamer@sectionintoc {5}{Correction des erreurs}{7}{1}{5}}
\@writefile{nav}{\headcommand {\sectionentry {5}{Correction des erreurs}{7}{Correction des erreurs}{1}}}
\@writefile{nav}{\headcommand {\beamer@sectionpages {6}{6}}}
\@writefile{nav}{\headcommand {\beamer@subsectionpages {7}{6}}}
\@writefile{nav}{\headcommand {\slideentry {5}{0}{1}{7/7}{}{1}}}
\@writefile{nav}{\headcommand {\beamer@framepages {7}{7}}}
\@writefile{nav}{\headcommand {\beamer@partpages {2}{7}}}
\@writefile{nav}{\headcommand {\beamer@subsectionpages {7}{7}}}
\@writefile{nav}{\headcommand {\beamer@sectionpages {7}{7}}}
\@writefile{nav}{\headcommand {\beamer@documentpages {7}}}
\@writefile{nav}{\headcommand {\def \inserttotalframenumber {7}}}
