\beamer@endinputifotherversion {3.07pt}
\select@language {french}
\beamer@sectionintoc {1}{Introduction}{3}{1}{1}
\beamer@sectionintoc {2}{IEEE 802.11 (Legacy)}{6}{1}{2}
\beamer@sectionintoc {3}{IEEE 802.11e}{10}{1}{3}
\beamer@sectionintoc {4}{Comparatif \& Conclusion}{15}{1}{4}
